<svg xmlns="http://www.w3.org/2000/svg" width="24.297" height="32.357" viewBox="0 0 24.297 32.357">
  <g id="Group_54" data-name="Group 54" transform="translate(0 0)">
    <path id="Path_37" data-name="Path 37" d="M590.409,451.426a.622.622,0,0,1-.622-.622v-4.3A10.859,10.859,0,0,0,582.96,436.4a.622.622,0,0,1-.078-1.116,8.022,8.022,0,1,0-8,0,.622.622,0,0,1-.078,1.116,10.859,10.859,0,0,0-6.827,10.108v4.3a.622.622,0,0,1-1.245,0v-4.3a12.089,12.089,0,0,1,6.565-10.784,9.267,9.267,0,1,1,11.168,0,12.088,12.088,0,0,1,6.564,10.785v4.3A.622.622,0,0,1,590.409,451.426Z" transform="translate(-566.735 -419.069)" fill="#201600"/>
  </g>
</svg>
